{
  "id": "reqres",
  "previewType": "code",
  "sampleResponse": {
    "page": 1,
    "per_page": 6,
    "total": 12,
    "total_pages": 2,
    "data": [
      {
        "id": 1,
        "email": "george.bluth@reqres.in",
        "first_name": "George",
        "last_name": "Bluth",
        "avatar": "https://reqres.in/img/faces/1-image.jpg"
      }
    ]
  },
  "previewConfig": {
    "title": "ReqRes",
    "subtitle": "Fake REST API"
  }
}
